{
	"info": {
		"_postman_id": "886b9ff8-1f83-41a4-8117-8b7c1f7f89ed",
		"name": "Task",
		"schema": "https://schema.getpostman.com/json/collection/v2.1.0/collection.json"
	},
	"item": [
		{
			"name": "login",
			"request": {
				"method": "POST",
				"header": [
					{
						"key": "Authorization",
						"value": "Bearer branlKbMolboJcnF4B1LhNFjuWTSsutsJWladmR9RLqVdzOAGDXxGqJaGFxKr180",
						"type": "text",
						"disabled": true
					}
				],
				"body": {
					"mode": "formdata",
					"formdata": [
						{
							"key": "email",
							"value": "admin@admin.com",
							"type": "text"
						},
						{
							"key": "password",
							"value": "123",
							"type": "text"
						}
					]
				},
				"url": {
					"raw": "localhost/task/api/auth/login",
					"host": [
						"localhost"
					],
					"path": [
						"task",
						"api",
						"auth",
						"login"
					]
				}
			},
			"response": [
				{
					"name": "login",
					"originalRequest": {
						"method": "POST",
						"header": [
							{
								"key": "Authorization",
								"value": "Bearer branlKbMolboJcnF4B1LhNFjuWTSsutsJWladmR9RLqVdzOAGDXxGqJaGFxKr180",
								"type": "text",
								"disabled": true
							}
						],
						"body": {
							"mode": "formdata",
							"formdata": [
								{
									"key": "email",
									"value": "admin@admin.com",
									"type": "text"
								},
								{
									"key": "password",
									"value": "123",
									"type": "text"
								}
							]
						},
						"url": {
							"raw": "localhost/task/api/auth/login",
							"host": [
								"localhost"
							],
							"path": [
								"task",
								"api",
								"auth",
								"login"
							]
						}
					},
					"status": "OK",
					"code": 200,
					"_postman_previewlanguage": "json",
					"header": [
						{
							"key": "Date",
							"value": "Sat, 02 Jan 2021 07:24:18 GMT"
						},
						{
							"key": "Server",
							"value": "Apache/2.4.41 (Win64) PHP/7.2.25"
						},
						{
							"key": "X-Powered-By",
							"value": "PHP/7.2.25"
						},
						{
							"key": "Cache-Control",
							"value": "no-cache, private"
						},
						{
							"key": "X-RateLimit-Limit",
							"value": "60"
						},
						{
							"key": "X-RateLimit-Remaining",
							"value": "59"
						},
						{
							"key": "Content-Length",
							"value": "387"
						},
						{
							"key": "Keep-Alive",
							"value": "timeout=5, max=100"
						},
						{
							"key": "Connection",
							"value": "Keep-Alive"
						},
						{
							"key": "Content-Type",
							"value": "application/json"
						}
					],
					"cookie": [],
					"body": "{\n    \"access_token\": \"eyJ0eXAiOiJKV1QiLCJhbGciOiJIUzI1NiJ9.eyJpc3MiOiJodHRwOlwvXC9sb2NhbGhvc3RcL3Rhc2tcL2FwaVwvYXV0aFwvbG9naW4iLCJpYXQiOjE2MDk1NzIyNjAsImV4cCI6MTYwOTU3NTg2MCwibmJmIjoxNjA5NTcyMjYwLCJqdGkiOiJWbUs2Qk1BWW9uMDg3Y01OIiwic3ViIjoyLCJwcnYiOiI4N2UwYWYxZWY5ZmQxNTgxMmZkZWM5NzE1M2ExNGUwYjA0NzU0NmFhIn0.WX9rtmAu3k3bjDKGOWOz4VmMaehyTNdfkQtjhQw2MWA\",\n    \"token_type\": \"bearer\",\n    \"expires_in\": 3600\n}"
				}
			]
		},
		{
			"name": "posts",
			"protocolProfileBehavior": {
				"disableBodyPruning": true
			},
			"request": {
				"method": "GET",
				"header": [
					{
						"key": "Authorization",
						"value": "Bearer eyJ0eXAiOiJKV1QiLCJhbGciOiJIUzI1NiJ9.eyJpc3MiOiJodHRwOlwvXC9sb2NhbGhvc3RcL3Rhc2tcL2FwaVwvYXV0aFwvbG9naW4iLCJpYXQiOjE2MDk1NzQ4NDcsImV4cCI6MTYwOTU3ODQ0NywibmJmIjoxNjA5NTc0ODQ3LCJqdGkiOiJHNzRaS0FmM0pMMFRMaHBCIiwic3ViIjoyLCJwcnYiOiI4N2UwYWYxZWY5ZmQxNTgxMmZkZWM5NzE1M2ExNGUwYjA0NzU0NmFhIn0.-LGeaBPmMHI1mgpy4OummmeycKocJQ6DPQ3yxyMnCF8",
						"type": "text"
					}
				],
				"body": {
					"mode": "formdata",
					"formdata": [
						{
							"key": "email",
							"value": "admin@admin.com",
							"type": "text"
						},
						{
							"key": "password",
							"value": "12",
							"type": "text"
						}
					]
				},
				"url": {
					"raw": "localhost/task/api/posts",
					"host": [
						"localhost"
					],
					"path": [
						"task",
						"api",
						"posts"
					]
				}
			},
			"response": [
				{
					"name": "login",
					"originalRequest": {
						"method": "POST",
						"header": [
							{
								"key": "Authorization",
								"value": "Bearer branlKbMolboJcnF4B1LhNFjuWTSsutsJWladmR9RLqVdzOAGDXxGqJaGFxKr180",
								"type": "text",
								"disabled": true
							}
						],
						"body": {
							"mode": "formdata",
							"formdata": [
								{
									"key": "email",
									"value": "admin@admin.com",
									"type": "text"
								},
								{
									"key": "password",
									"value": "123",
									"type": "text"
								}
							]
						},
						"url": {
							"raw": "localhost/task/api/auth/login",
							"host": [
								"localhost"
							],
							"path": [
								"task",
								"api",
								"auth",
								"login"
							]
						}
					},
					"status": "OK",
					"code": 200,
					"_postman_previewlanguage": "json",
					"header": [
						{
							"key": "Date",
							"value": "Sat, 02 Jan 2021 07:24:18 GMT"
						},
						{
							"key": "Server",
							"value": "Apache/2.4.41 (Win64) PHP/7.2.25"
						},
						{
							"key": "X-Powered-By",
							"value": "PHP/7.2.25"
						},
						{
							"key": "Cache-Control",
							"value": "no-cache, private"
						},
						{
							"key": "X-RateLimit-Limit",
							"value": "60"
						},
						{
							"key": "X-RateLimit-Remaining",
							"value": "59"
						},
						{
							"key": "Content-Length",
							"value": "387"
						},
						{
							"key": "Keep-Alive",
							"value": "timeout=5, max=100"
						},
						{
							"key": "Connection",
							"value": "Keep-Alive"
						},
						{
							"key": "Content-Type",
							"value": "application/json"
						}
					],
					"cookie": [],
					"body": "{\n    \"access_token\": \"eyJ0eXAiOiJKV1QiLCJhbGciOiJIUzI1NiJ9.eyJpc3MiOiJodHRwOlwvXC9sb2NhbGhvc3RcL3Rhc2tcL2FwaVwvYXV0aFwvbG9naW4iLCJpYXQiOjE2MDk1NzIyNjAsImV4cCI6MTYwOTU3NTg2MCwibmJmIjoxNjA5NTcyMjYwLCJqdGkiOiJWbUs2Qk1BWW9uMDg3Y01OIiwic3ViIjoyLCJwcnYiOiI4N2UwYWYxZWY5ZmQxNTgxMmZkZWM5NzE1M2ExNGUwYjA0NzU0NmFhIn0.WX9rtmAu3k3bjDKGOWOz4VmMaehyTNdfkQtjhQw2MWA\",\n    \"token_type\": \"bearer\",\n    \"expires_in\": 3600\n}"
				}
			]
		},
		{
			"name": "post",
			"protocolProfileBehavior": {
				"disableBodyPruning": true
			},
			"request": {
				"method": "GET",
				"header": [
					{
						"key": "Authorization",
						"value": "Bearer eyJ0eXAiOiJKV1QiLCJhbGciOiJIUzI1NiJ9.eyJpc3MiOiJodHRwOlwvXC9sb2NhbGhvc3RcL3Rhc2tcL2FwaVwvYXV0aFwvbG9naW4iLCJpYXQiOjE2MDk1NzQ4NDcsImV4cCI6MTYwOTU3ODQ0NywibmJmIjoxNjA5NTc0ODQ3LCJqdGkiOiJHNzRaS0FmM0pMMFRMaHBCIiwic3ViIjoyLCJwcnYiOiI4N2UwYWYxZWY5ZmQxNTgxMmZkZWM5NzE1M2ExNGUwYjA0NzU0NmFhIn0.-LGeaBPmMHI1mgpy4OummmeycKocJQ6DPQ3yxyMnCF8",
						"type": "text"
					}
				],
				"body": {
					"mode": "formdata",
					"formdata": [
						{
							"key": "email",
							"value": "admin@admin.com",
							"type": "text"
						},
						{
							"key": "password",
							"value": "12",
							"type": "text"
						}
					]
				},
				"url": {
					"raw": "localhost/task/api/post/5",
					"host": [
						"localhost"
					],
					"path": [
						"task",
						"api",
						"post",
						"5"
					]
				}
			},
			"response": [
				{
					"name": "login",
					"originalRequest": {
						"method": "POST",
						"header": [
							{
								"key": "Authorization",
								"value": "Bearer branlKbMolboJcnF4B1LhNFjuWTSsutsJWladmR9RLqVdzOAGDXxGqJaGFxKr180",
								"type": "text",
								"disabled": true
							}
						],
						"body": {
							"mode": "formdata",
							"formdata": [
								{
									"key": "email",
									"value": "admin@admin.com",
									"type": "text"
								},
								{
									"key": "password",
									"value": "123",
									"type": "text"
								}
							]
						},
						"url": {
							"raw": "localhost/task/api/auth/login",
							"host": [
								"localhost"
							],
							"path": [
								"task",
								"api",
								"auth",
								"login"
							]
						}
					},
					"status": "OK",
					"code": 200,
					"_postman_previewlanguage": "json",
					"header": [
						{
							"key": "Date",
							"value": "Sat, 02 Jan 2021 07:24:18 GMT"
						},
						{
							"key": "Server",
							"value": "Apache/2.4.41 (Win64) PHP/7.2.25"
						},
						{
							"key": "X-Powered-By",
							"value": "PHP/7.2.25"
						},
						{
							"key": "Cache-Control",
							"value": "no-cache, private"
						},
						{
							"key": "X-RateLimit-Limit",
							"value": "60"
						},
						{
							"key": "X-RateLimit-Remaining",
							"value": "59"
						},
						{
							"key": "Content-Length",
							"value": "387"
						},
						{
							"key": "Keep-Alive",
							"value": "timeout=5, max=100"
						},
						{
							"key": "Connection",
							"value": "Keep-Alive"
						},
						{
							"key": "Content-Type",
							"value": "application/json"
						}
					],
					"cookie": [],
					"body": "{\n    \"access_token\": \"eyJ0eXAiOiJKV1QiLCJhbGciOiJIUzI1NiJ9.eyJpc3MiOiJodHRwOlwvXC9sb2NhbGhvc3RcL3Rhc2tcL2FwaVwvYXV0aFwvbG9naW4iLCJpYXQiOjE2MDk1NzIyNjAsImV4cCI6MTYwOTU3NTg2MCwibmJmIjoxNjA5NTcyMjYwLCJqdGkiOiJWbUs2Qk1BWW9uMDg3Y01OIiwic3ViIjoyLCJwcnYiOiI4N2UwYWYxZWY5ZmQxNTgxMmZkZWM5NzE1M2ExNGUwYjA0NzU0NmFhIn0.WX9rtmAu3k3bjDKGOWOz4VmMaehyTNdfkQtjhQw2MWA\",\n    \"token_type\": \"bearer\",\n    \"expires_in\": 3600\n}"
				}
			]
		},
		{
			"name": "save post",
			"request": {
				"method": "POST",
				"header": [
					{
						"key": "Authorization",
						"value": "Bearer eyJ0eXAiOiJKV1QiLCJhbGciOiJIUzI1NiJ9.eyJpc3MiOiJodHRwOlwvXC9sb2NhbGhvc3RcL3Rhc2tcL2FwaVwvYXV0aFwvbG9naW4iLCJpYXQiOjE2MDk1NzQ4NDcsImV4cCI6MTYwOTU3ODQ0NywibmJmIjoxNjA5NTc0ODQ3LCJqdGkiOiJHNzRaS0FmM0pMMFRMaHBCIiwic3ViIjoyLCJwcnYiOiI4N2UwYWYxZWY5ZmQxNTgxMmZkZWM5NzE1M2ExNGUwYjA0NzU0NmFhIn0.-LGeaBPmMHI1mgpy4OummmeycKocJQ6DPQ3yxyMnCF8",
						"type": "text"
					}
				],
				"body": {
					"mode": "formdata",
					"formdata": [
						{
							"key": "title",
							"value": "nice title",
							"type": "text"
						},
						{
							"key": "text",
							"value": "nice body",
							"type": "text"
						}
					]
				},
				"url": {
					"raw": "localhost/task/api/save-post",
					"host": [
						"localhost"
					],
					"path": [
						"task",
						"api",
						"save-post"
					]
				}
			},
			"response": [
				{
					"name": "login",
					"originalRequest": {
						"method": "POST",
						"header": [
							{
								"key": "Authorization",
								"value": "Bearer branlKbMolboJcnF4B1LhNFjuWTSsutsJWladmR9RLqVdzOAGDXxGqJaGFxKr180",
								"type": "text",
								"disabled": true
							}
						],
						"body": {
							"mode": "formdata",
							"formdata": [
								{
									"key": "email",
									"value": "admin@admin.com",
									"type": "text"
								},
								{
									"key": "password",
									"value": "123",
									"type": "text"
								}
							]
						},
						"url": {
							"raw": "localhost/task/api/auth/login",
							"host": [
								"localhost"
							],
							"path": [
								"task",
								"api",
								"auth",
								"login"
							]
						}
					},
					"status": "OK",
					"code": 200,
					"_postman_previewlanguage": "json",
					"header": [
						{
							"key": "Date",
							"value": "Sat, 02 Jan 2021 07:24:18 GMT"
						},
						{
							"key": "Server",
							"value": "Apache/2.4.41 (Win64) PHP/7.2.25"
						},
						{
							"key": "X-Powered-By",
							"value": "PHP/7.2.25"
						},
						{
							"key": "Cache-Control",
							"value": "no-cache, private"
						},
						{
							"key": "X-RateLimit-Limit",
							"value": "60"
						},
						{
							"key": "X-RateLimit-Remaining",
							"value": "59"
						},
						{
							"key": "Content-Length",
							"value": "387"
						},
						{
							"key": "Keep-Alive",
							"value": "timeout=5, max=100"
						},
						{
							"key": "Connection",
							"value": "Keep-Alive"
						},
						{
							"key": "Content-Type",
							"value": "application/json"
						}
					],
					"cookie": [],
					"body": "{\n    \"access_token\": \"eyJ0eXAiOiJKV1QiLCJhbGciOiJIUzI1NiJ9.eyJpc3MiOiJodHRwOlwvXC9sb2NhbGhvc3RcL3Rhc2tcL2FwaVwvYXV0aFwvbG9naW4iLCJpYXQiOjE2MDk1NzIyNjAsImV4cCI6MTYwOTU3NTg2MCwibmJmIjoxNjA5NTcyMjYwLCJqdGkiOiJWbUs2Qk1BWW9uMDg3Y01OIiwic3ViIjoyLCJwcnYiOiI4N2UwYWYxZWY5ZmQxNTgxMmZkZWM5NzE1M2ExNGUwYjA0NzU0NmFhIn0.WX9rtmAu3k3bjDKGOWOz4VmMaehyTNdfkQtjhQw2MWA\",\n    \"token_type\": \"bearer\",\n    \"expires_in\": 3600\n}"
				}
			]
		},
		{
			"name": "update post",
			"request": {
				"method": "POST",
				"header": [
					{
						"key": "Authorization",
						"value": "Bearer eyJ0eXAiOiJKV1QiLCJhbGciOiJIUzI1NiJ9.eyJpc3MiOiJodHRwOlwvXC9sb2NhbGhvc3RcL3Rhc2tcL2FwaVwvYXV0aFwvbG9naW4iLCJpYXQiOjE2MDk1NzQ4NDcsImV4cCI6MTYwOTU3ODQ0NywibmJmIjoxNjA5NTc0ODQ3LCJqdGkiOiJHNzRaS0FmM0pMMFRMaHBCIiwic3ViIjoyLCJwcnYiOiI4N2UwYWYxZWY5ZmQxNTgxMmZkZWM5NzE1M2ExNGUwYjA0NzU0NmFhIn0.-LGeaBPmMHI1mgpy4OummmeycKocJQ6DPQ3yxyMnCF8",
						"type": "text"
					}
				],
				"body": {
					"mode": "formdata",
					"formdata": [
						{
							"key": "title",
							"value": "nice title",
							"type": "text"
						},
						{
							"key": "text",
							"value": "nice body",
							"type": "text"
						}
					]
				},
				"url": {
					"raw": "localhost/task/api/update-post/5",
					"host": [
						"localhost"
					],
					"path": [
						"task",
						"api",
						"update-post",
						"5"
					]
				}
			},
			"response": [
				{
					"name": "login",
					"originalRequest": {
						"method": "POST",
						"header": [
							{
								"key": "Authorization",
								"value": "Bearer branlKbMolboJcnF4B1LhNFjuWTSsutsJWladmR9RLqVdzOAGDXxGqJaGFxKr180",
								"type": "text",
								"disabled": true
							}
						],
						"body": {
							"mode": "formdata",
							"formdata": [
								{
									"key": "email",
									"value": "admin@admin.com",
									"type": "text"
								},
								{
									"key": "password",
									"value": "123",
									"type": "text"
								}
							]
						},
						"url": {
							"raw": "localhost/task/api/auth/login",
							"host": [
								"localhost"
							],
							"path": [
								"task",
								"api",
								"auth",
								"login"
							]
						}
					},
					"status": "OK",
					"code": 200,
					"_postman_previewlanguage": "json",
					"header": [
						{
							"key": "Date",
							"value": "Sat, 02 Jan 2021 07:24:18 GMT"
						},
						{
							"key": "Server",
							"value": "Apache/2.4.41 (Win64) PHP/7.2.25"
						},
						{
							"key": "X-Powered-By",
							"value": "PHP/7.2.25"
						},
						{
							"key": "Cache-Control",
							"value": "no-cache, private"
						},
						{
							"key": "X-RateLimit-Limit",
							"value": "60"
						},
						{
							"key": "X-RateLimit-Remaining",
							"value": "59"
						},
						{
							"key": "Content-Length",
							"value": "387"
						},
						{
							"key": "Keep-Alive",
							"value": "timeout=5, max=100"
						},
						{
							"key": "Connection",
							"value": "Keep-Alive"
						},
						{
							"key": "Content-Type",
							"value": "application/json"
						}
					],
					"cookie": [],
					"body": "{\n    \"access_token\": \"eyJ0eXAiOiJKV1QiLCJhbGciOiJIUzI1NiJ9.eyJpc3MiOiJodHRwOlwvXC9sb2NhbGhvc3RcL3Rhc2tcL2FwaVwvYXV0aFwvbG9naW4iLCJpYXQiOjE2MDk1NzIyNjAsImV4cCI6MTYwOTU3NTg2MCwibmJmIjoxNjA5NTcyMjYwLCJqdGkiOiJWbUs2Qk1BWW9uMDg3Y01OIiwic3ViIjoyLCJwcnYiOiI4N2UwYWYxZWY5ZmQxNTgxMmZkZWM5NzE1M2ExNGUwYjA0NzU0NmFhIn0.WX9rtmAu3k3bjDKGOWOz4VmMaehyTNdfkQtjhQw2MWA\",\n    \"token_type\": \"bearer\",\n    \"expires_in\": 3600\n}"
				}
			]
		},
		{
			"name": "delete post",
			"request": {
				"method": "POST",
				"header": [
					{
						"key": "Authorization",
						"value": "Bearer eyJ0eXAiOiJKV1QiLCJhbGciOiJIUzI1NiJ9.eyJpc3MiOiJodHRwOlwvXC9sb2NhbGhvc3RcL3Rhc2tcL2FwaVwvYXV0aFwvbG9naW4iLCJpYXQiOjE2MDk1OTg1NjcsImV4cCI6MTYwOTYwMjE2NywibmJmIjoxNjA5NTk4NTY3LCJqdGkiOiJDcmc1ZWVjbkx0NjFZZko3Iiwic3ViIjoxLCJwcnYiOiI4N2UwYWYxZWY5ZmQxNTgxMmZkZWM5NzE1M2ExNGUwYjA0NzU0NmFhIn0.FVQ3jnqKkPvZ7WohhcYg9SwV6oLHnT29Zg3VgNZiVTw",
						"type": "text"
					}
				],
				"body": {
					"mode": "formdata",
					"formdata": [
						{
							"key": "title",
							"value": "nice title5556",
							"type": "text"
						},
						{
							"key": "text",
							"value": "nice body",
							"type": "text"
						},
						{
							"key": "",
							"value": "",
							"type": "text"
						}
					]
				},
				"url": {
					"raw": "localhost/task/api/delete-post/5",
					"host": [
						"localhost"
					],
					"path": [
						"task",
						"api",
						"delete-post",
						"5"
					]
				}
			},
			"response": [
				{
					"name": "login",
					"originalRequest": {
						"method": "POST",
						"header": [
							{
								"key": "Authorization",
								"value": "Bearer branlKbMolboJcnF4B1LhNFjuWTSsutsJWladmR9RLqVdzOAGDXxGqJaGFxKr180",
								"type": "text",
								"disabled": true
							}
						],
						"body": {
							"mode": "formdata",
							"formdata": [
								{
									"key": "email",
									"value": "admin@admin.com",
									"type": "text"
								},
								{
									"key": "password",
									"value": "123",
									"type": "text"
								}
							]
						},
						"url": {
							"raw": "localhost/task/api/auth/login",
							"host": [
								"localhost"
							],
							"path": [
								"task",
								"api",
								"auth",
								"login"
							]
						}
					},
					"status": "OK",
					"code": 200,
					"_postman_previewlanguage": "json",
					"header": [
						{
							"key": "Date",
							"value": "Sat, 02 Jan 2021 07:24:18 GMT"
						},
						{
							"key": "Server",
							"value": "Apache/2.4.41 (Win64) PHP/7.2.25"
						},
						{
							"key": "X-Powered-By",
							"value": "PHP/7.2.25"
						},
						{
							"key": "Cache-Control",
							"value": "no-cache, private"
						},
						{
							"key": "X-RateLimit-Limit",
							"value": "60"
						},
						{
							"key": "X-RateLimit-Remaining",
							"value": "59"
						},
						{
							"key": "Content-Length",
							"value": "387"
						},
						{
							"key": "Keep-Alive",
							"value": "timeout=5, max=100"
						},
						{
							"key": "Connection",
							"value": "Keep-Alive"
						},
						{
							"key": "Content-Type",
							"value": "application/json"
						}
					],
					"cookie": [],
					"body": "{\n    \"access_token\": \"eyJ0eXAiOiJKV1QiLCJhbGciOiJIUzI1NiJ9.eyJpc3MiOiJodHRwOlwvXC9sb2NhbGhvc3RcL3Rhc2tcL2FwaVwvYXV0aFwvbG9naW4iLCJpYXQiOjE2MDk1NzIyNjAsImV4cCI6MTYwOTU3NTg2MCwibmJmIjoxNjA5NTcyMjYwLCJqdGkiOiJWbUs2Qk1BWW9uMDg3Y01OIiwic3ViIjoyLCJwcnYiOiI4N2UwYWYxZWY5ZmQxNTgxMmZkZWM5NzE1M2ExNGUwYjA0NzU0NmFhIn0.WX9rtmAu3k3bjDKGOWOz4VmMaehyTNdfkQtjhQw2MWA\",\n    \"token_type\": \"bearer\",\n    \"expires_in\": 3600\n}"
				}
			]
		},
		{
			"name": "add comment",
			"request": {
				"method": "POST",
				"header": [
					{
						"key": "Authorization",
						"value": "Bearer eyJ0eXAiOiJKV1QiLCJhbGciOiJIUzI1NiJ9.eyJpc3MiOiJodHRwOlwvXC9sb2NhbGhvc3RcL3Rhc2tcL2FwaVwvYXV0aFwvbG9naW4iLCJpYXQiOjE2MDk1OTg1NjcsImV4cCI6MTYwOTYwMjE2NywibmJmIjoxNjA5NTk4NTY3LCJqdGkiOiJDcmc1ZWVjbkx0NjFZZko3Iiwic3ViIjoxLCJwcnYiOiI4N2UwYWYxZWY5ZmQxNTgxMmZkZWM5NzE1M2ExNGUwYjA0NzU0NmFhIn0.FVQ3jnqKkPvZ7WohhcYg9SwV6oLHnT29Zg3VgNZiVTw",
						"type": "text"
					}
				],
				"body": {
					"mode": "formdata",
					"formdata": [
						{
							"key": "comment",
							"value": "rerer77777",
							"type": "text"
						},
						{
							"key": "post_id",
							"value": "6",
							"type": "text"
						},
						{
							"key": "parent",
							"value": "0",
							"type": "text"
						}
					]
				},
				"url": {
					"raw": "localhost/task/api/add-comment",
					"host": [
						"localhost"
					],
					"path": [
						"task",
						"api",
						"add-comment"
					]
				}
			},
			"response": [
				{
					"name": "login",
					"originalRequest": {
						"method": "POST",
						"header": [
							{
								"key": "Authorization",
								"value": "Bearer branlKbMolboJcnF4B1LhNFjuWTSsutsJWladmR9RLqVdzOAGDXxGqJaGFxKr180",
								"type": "text",
								"disabled": true
							}
						],
						"body": {
							"mode": "formdata",
							"formdata": [
								{
									"key": "email",
									"value": "admin@admin.com",
									"type": "text"
								},
								{
									"key": "password",
									"value": "123",
									"type": "text"
								}
							]
						},
						"url": {
							"raw": "localhost/task/api/auth/login",
							"host": [
								"localhost"
							],
							"path": [
								"task",
								"api",
								"auth",
								"login"
							]
						}
					},
					"status": "OK",
					"code": 200,
					"_postman_previewlanguage": "json",
					"header": [
						{
							"key": "Date",
							"value": "Sat, 02 Jan 2021 07:24:18 GMT"
						},
						{
							"key": "Server",
							"value": "Apache/2.4.41 (Win64) PHP/7.2.25"
						},
						{
							"key": "X-Powered-By",
							"value": "PHP/7.2.25"
						},
						{
							"key": "Cache-Control",
							"value": "no-cache, private"
						},
						{
							"key": "X-RateLimit-Limit",
							"value": "60"
						},
						{
							"key": "X-RateLimit-Remaining",
							"value": "59"
						},
						{
							"key": "Content-Length",
							"value": "387"
						},
						{
							"key": "Keep-Alive",
							"value": "timeout=5, max=100"
						},
						{
							"key": "Connection",
							"value": "Keep-Alive"
						},
						{
							"key": "Content-Type",
							"value": "application/json"
						}
					],
					"cookie": [],
					"body": "{\n    \"access_token\": \"eyJ0eXAiOiJKV1QiLCJhbGciOiJIUzI1NiJ9.eyJpc3MiOiJodHRwOlwvXC9sb2NhbGhvc3RcL3Rhc2tcL2FwaVwvYXV0aFwvbG9naW4iLCJpYXQiOjE2MDk1NzIyNjAsImV4cCI6MTYwOTU3NTg2MCwibmJmIjoxNjA5NTcyMjYwLCJqdGkiOiJWbUs2Qk1BWW9uMDg3Y01OIiwic3ViIjoyLCJwcnYiOiI4N2UwYWYxZWY5ZmQxNTgxMmZkZWM5NzE1M2ExNGUwYjA0NzU0NmFhIn0.WX9rtmAu3k3bjDKGOWOz4VmMaehyTNdfkQtjhQw2MWA\",\n    \"token_type\": \"bearer\",\n    \"expires_in\": 3600\n}"
				}
			]
		},
		{
			"name": "update comment",
			"request": {
				"method": "POST",
				"header": [
					{
						"key": "Authorization",
						"value": "Bearer eyJ0eXAiOiJKV1QiLCJhbGciOiJIUzI1NiJ9.eyJpc3MiOiJodHRwOlwvXC9sb2NhbGhvc3RcL3Rhc2tcL2FwaVwvYXV0aFwvbG9naW4iLCJpYXQiOjE2MDk2MDA5NzUsImV4cCI6MTYwOTYwNDU3NSwibmJmIjoxNjA5NjAwOTc1LCJqdGkiOiI5RENtZXVJWnowZFhzNjBwIiwic3ViIjoxLCJwcnYiOiI4N2UwYWYxZWY5ZmQxNTgxMmZkZWM5NzE1M2ExNGUwYjA0NzU0NmFhIn0.jkIzTepKK1gZrnqICtXQektTdMmki5v-Vl2yp2-hgtA",
						"type": "text"
					}
				],
				"body": {
					"mode": "formdata",
					"formdata": [
						{
							"key": "comment",
							"value": "rerer77777",
							"type": "text"
						},
						{
							"key": "id",
							"value": "17",
							"type": "text"
						}
					]
				},
				"url": {
					"raw": "localhost/task/api/update-comment",
					"host": [
						"localhost"
					],
					"path": [
						"task",
						"api",
						"update-comment"
					]
				}
			},
			"response": [
				{
					"name": "login",
					"originalRequest": {
						"method": "POST",
						"header": [
							{
								"key": "Authorization",
								"value": "Bearer branlKbMolboJcnF4B1LhNFjuWTSsutsJWladmR9RLqVdzOAGDXxGqJaGFxKr180",
								"type": "text",
								"disabled": true
							}
						],
						"body": {
							"mode": "formdata",
							"formdata": [
								{
									"key": "email",
									"value": "admin@admin.com",
									"type": "text"
								},
								{
									"key": "password",
									"value": "123",
									"type": "text"
								}
							]
						},
						"url": {
							"raw": "localhost/task/api/auth/login",
							"host": [
								"localhost"
							],
							"path": [
								"task",
								"api",
								"auth",
								"login"
							]
						}
					},
					"status": "OK",
					"code": 200,
					"_postman_previewlanguage": "json",
					"header": [
						{
							"key": "Date",
							"value": "Sat, 02 Jan 2021 07:24:18 GMT"
						},
						{
							"key": "Server",
							"value": "Apache/2.4.41 (Win64) PHP/7.2.25"
						},
						{
							"key": "X-Powered-By",
							"value": "PHP/7.2.25"
						},
						{
							"key": "Cache-Control",
							"value": "no-cache, private"
						},
						{
							"key": "X-RateLimit-Limit",
							"value": "60"
						},
						{
							"key": "X-RateLimit-Remaining",
							"value": "59"
						},
						{
							"key": "Content-Length",
							"value": "387"
						},
						{
							"key": "Keep-Alive",
							"value": "timeout=5, max=100"
						},
						{
							"key": "Connection",
							"value": "Keep-Alive"
						},
						{
							"key": "Content-Type",
							"value": "application/json"
						}
					],
					"cookie": [],
					"body": "{\n    \"access_token\": \"eyJ0eXAiOiJKV1QiLCJhbGciOiJIUzI1NiJ9.eyJpc3MiOiJodHRwOlwvXC9sb2NhbGhvc3RcL3Rhc2tcL2FwaVwvYXV0aFwvbG9naW4iLCJpYXQiOjE2MDk1NzIyNjAsImV4cCI6MTYwOTU3NTg2MCwibmJmIjoxNjA5NTcyMjYwLCJqdGkiOiJWbUs2Qk1BWW9uMDg3Y01OIiwic3ViIjoyLCJwcnYiOiI4N2UwYWYxZWY5ZmQxNTgxMmZkZWM5NzE1M2ExNGUwYjA0NzU0NmFhIn0.WX9rtmAu3k3bjDKGOWOz4VmMaehyTNdfkQtjhQw2MWA\",\n    \"token_type\": \"bearer\",\n    \"expires_in\": 3600\n}"
				}
			]
		},
		{
			"name": "delete comment",
			"request": {
				"method": "POST",
				"header": [
					{
						"key": "Authorization",
						"value": "Bearer eyJ0eXAiOiJKV1QiLCJhbGciOiJIUzI1NiJ9.eyJpc3MiOiJodHRwOlwvXC9sb2NhbGhvc3RcL3Rhc2tcL2FwaVwvYXV0aFwvbG9naW4iLCJpYXQiOjE2MDk2MDA5NzUsImV4cCI6MTYwOTYwNDU3NSwibmJmIjoxNjA5NjAwOTc1LCJqdGkiOiI5RENtZXVJWnowZFhzNjBwIiwic3ViIjoxLCJwcnYiOiI4N2UwYWYxZWY5ZmQxNTgxMmZkZWM5NzE1M2ExNGUwYjA0NzU0NmFhIn0.jkIzTepKK1gZrnqICtXQektTdMmki5v-Vl2yp2-hgtA",
						"type": "text"
					}
				],
				"body": {
					"mode": "formdata",
					"formdata": [
						{
							"key": "comment",
							"value": "rerer77777",
							"type": "text",
							"disabled": true
						},
						{
							"key": "id",
							"value": "17",
							"type": "text",
							"disabled": true
						}
					]
				},
				"url": {
					"raw": "localhost/task/api/delete-comment/17",
					"host": [
						"localhost"
					],
					"path": [
						"task",
						"api",
						"delete-comment",
						"17"
					]
				}
			},
			"response": [
				{
					"name": "login",
					"originalRequest": {
						"method": "POST",
						"header": [
							{
								"key": "Authorization",
								"value": "Bearer branlKbMolboJcnF4B1LhNFjuWTSsutsJWladmR9RLqVdzOAGDXxGqJaGFxKr180",
								"type": "text",
								"disabled": true
							}
						],
						"body": {
							"mode": "formdata",
							"formdata": [
								{
									"key": "email",
									"value": "admin@admin.com",
									"type": "text"
								},
								{
									"key": "password",
									"value": "123",
									"type": "text"
								}
							]
						},
						"url": {
							"raw": "localhost/task/api/auth/login",
							"host": [
								"localhost"
							],
							"path": [
								"task",
								"api",
								"auth",
								"login"
							]
						}
					},
					"status": "OK",
					"code": 200,
					"_postman_previewlanguage": "json",
					"header": [
						{
							"key": "Date",
							"value": "Sat, 02 Jan 2021 07:24:18 GMT"
						},
						{
							"key": "Server",
							"value": "Apache/2.4.41 (Win64) PHP/7.2.25"
						},
						{
							"key": "X-Powered-By",
							"value": "PHP/7.2.25"
						},
						{
							"key": "Cache-Control",
							"value": "no-cache, private"
						},
						{
							"key": "X-RateLimit-Limit",
							"value": "60"
						},
						{
							"key": "X-RateLimit-Remaining",
							"value": "59"
						},
						{
							"key": "Content-Length",
							"value": "387"
						},
						{
							"key": "Keep-Alive",
							"value": "timeout=5, max=100"
						},
						{
							"key": "Connection",
							"value": "Keep-Alive"
						},
						{
							"key": "Content-Type",
							"value": "application/json"
						}
					],
					"cookie": [],
					"body": "{\n    \"access_token\": \"eyJ0eXAiOiJKV1QiLCJhbGciOiJIUzI1NiJ9.eyJpc3MiOiJodHRwOlwvXC9sb2NhbGhvc3RcL3Rhc2tcL2FwaVwvYXV0aFwvbG9naW4iLCJpYXQiOjE2MDk1NzIyNjAsImV4cCI6MTYwOTU3NTg2MCwibmJmIjoxNjA5NTcyMjYwLCJqdGkiOiJWbUs2Qk1BWW9uMDg3Y01OIiwic3ViIjoyLCJwcnYiOiI4N2UwYWYxZWY5ZmQxNTgxMmZkZWM5NzE1M2ExNGUwYjA0NzU0NmFhIn0.WX9rtmAu3k3bjDKGOWOz4VmMaehyTNdfkQtjhQw2MWA\",\n    \"token_type\": \"bearer\",\n    \"expires_in\": 3600\n}"
				}
			]
		}
	]
}